…
    ##  num [1:70063] 1999 1996 1993 1996 1993 ...

Now that this is done, we need to create a new dataframe with a new
variable that depicts the number of trees planted per year per
neighbourhoods.

``` r
year_planted_n_neighbourhood<-vancouver_trees_noNA_date %>%
  group_by(neighbourhood_name, year_planted) %>%
  summarise(.groups="keep", freq=n())
year_planted_n_neighbourhood
```

    ## # A tibble: 671 × 3
    ## # Groups:   neighbourhood_name, year_planted [671]
    ##    neighbourhood_name year_planted  freq
    ##    <chr>                     <dbl> <int>
    ##  1 ARBUTUS-RIDGE              1989    41
    ##  2 ARBUTUS-RIDGE              1990    76
    ##  3 ARBUTUS-RIDGE              1991    16
    ##  4 ARBUTUS-RIDGE              1992    81
    ##  5 ARBUTUS-RIDGE              1993    18
    ##  6 ARBUTUS-RIDGE              1994    58
    ##  7 ARBUTUS-RIDGE              1995   151
    ##  8 ARBUTUS-RIDGE              1996    95
    ##  9 ARBUTUS-RIDGE              1997    61
    ## 10 ARBUTUS-RIDGE              1998    59
    ## # ℹ 661 more rows
…
``` r
year_neighbourhood_stats <- year_planted_n_neighbourhood %>%
  group_by(neighbourhood_name) %>%
  summarise(
  min = min(freq),
  max = max(freq),
  range = max-min,
  mean = mean(freq),
  median = median(freq),
  stdev = sd(freq))
print(year_neighbourhood_stats)
```

    ## # A tibble: 22 × 7
    ##    neighbourhood_name         min   max range  mean median stdev
    ##    <chr>                    <int> <int> <int> <dbl>  <dbl> <dbl>
    ##  1 ARBUTUS-RIDGE               16   305   289  85.6    63   59.7
    ##  2 DOWNTOWN                     1   250   249  72.6    62   56.0
    ##  3 DUNBAR-SOUTHLANDS           24   272   248 122.    105   75.7
    ##  4 FAIRVIEW                     1   128   127  47.1    47   33.9
    ##  5 GRANDVIEW-WOODLAND          13   288   275  99.8    71   67.9
    ##  6 HASTINGS-SUNRISE            56   415   359 202.    170. 112. 
    ##  7 KENSINGTON-CEDAR COTTAGE     7   561   554 189.    176  124. 
    ##  8 KERRISDALE                   2   261   259  97.1    96   63.7
    ##  9 KILLARNEY                   13   240   227  94.4    81   57.6
    ## 10 KITSILANO                    9   197   188  85.5    79   49.6
    ## # ℹ 12 more rows
…
    ## [1] 0

``` r
sum(is.na(trees_noNA_date_area$plant_area))
```

    ## [1] 0

``` r
trees_noNA_date_area
```

    ## # A tibble: 69,171 × 20
    ##    tree_id civic_number std_street    genus_name species_name cultivar_name  
    ##      <dbl>        <dbl> <chr>         <chr>      <chr>        <chr>          
    ##  1  149556          494 W 58TH AV     ULMUS      AMERICANA    BRANDON        
    ##  2  149563          450 W 58TH AV     ZELKOVA    SERRATA      <NA>           
    ##  3  149579         4994 WINDSOR ST    STYRAX     JAPONICA     <NA>           
    ##  4  149590          858 E 39TH AV     FRAXINUS   AMERICANA    AUTUMN APPLAUSE
    ##  5  149604         5032 WINDSOR ST    ACER       CAMPESTRE    <NA>           
    ##  6  149617         4909 SHERBROOKE ST ACER       PLATANOIDES  COLUMNARE      
    ##  7  149618         4925 SHERBROOKE ST ACER       PLATANOIDES  COLUMNARE      
    ##  8  149619         4969 SHERBROOKE ST ACER       PLATANOIDES  COLUMNARE      
    ##  9  149625          720 E 39TH AV     FRAXINUS   AMERICANA    AUTUMN APPLAUSE
    ## 10  149626          736 E 39TH AV     TILIA      EUCHLORA   X <NA>           
    ## # ℹ 69,161 more rows
    ## # ℹ 14 more variables: common_name <chr>, assigned <chr>, root_barrier <chr>,
    ## #   plant_area <chr>, on_street_block <dbl>, on_street <chr>,
    ## #   neighbourhood_name <chr>, street_side_name <chr>, height_range_id <dbl>,
    ## #   diameter <dbl>, curb <chr>, date_planted <date>, longitude <dbl>,
    ## #   latitude <dbl>
…
``` r
trees_date_grate_barrier<-trees_noNA_date_area %>%
  select(year_planted, root_barrier, tree_grate)

# melt data for plotting
trees_date_grate_barrier <- trees_date_grate_barrier %>%
  pivot_longer(cols = c("root_barrier", "tree_grate"),
               names_to = "type",
               values_to = "value") %>%
  filter(value== "Y") 
trees_date_grate_barrier
```

    ## # A tibble: 9,614 × 3
    ##    year_planted type         value
    ##           <dbl> <chr>        <chr>
    ##  1         2016 root_barrier Y    
    ##  2         2007 root_barrier Y    
    ##  3         2005 root_barrier Y    
    ##  4         2004 root_barrier Y    
    ##  5         2005 root_barrier Y    
    ##  6         2007 root_barrier Y    
    ##  7         2006 root_barrier Y    
    ##  8         2007 root_barrier Y    
    ##  9         1995 tree_grate   Y    
    ## 10         1995 tree_grate   Y    
    ## # ℹ 9,604 more rows
…
We can thus immediately create a new dataframe with a new variable that
depicts the number of trees planted per year per neighbourhoods.

``` r
species_neighbourhood<-vancouver_trees %>%
  group_by(neighbourhood_name, common_name) %>%
  summarise(.groups="keep", n=n()) %>%
  ungroup() %>%
  group_by(neighbourhood_name) %>%
  mutate(frequency=n/sum(n))
species_neighbourhood
```

    ## # A tibble: 6,141 × 4
    ## # Groups:   neighbourhood_name [22]
    ##    neighbourhood_name common_name                  n frequency
    ##    <chr>              <chr>                    <int>     <dbl>
    ##  1 ARBUTUS-RIDGE      ACCOLADE CHERRY              1  0.000193
    ##  2 ARBUTUS-RIDGE      AKEBONO FLOWERING CHERRY    61  0.0118  
    ##  3 ARBUTUS-RIDGE      ALDERLEAFED MOUNTAIN ASH     8  0.00155 
    ##  4 ARBUTUS-RIDGE      ALIA'S MAGNOLIA              3  0.000580
    ##  5 ARBUTUS-RIDGE      AMERICAN ELM                92  0.0178  
    ##  6 ARBUTUS-RIDGE      AMERICAN FILBERT             4  0.000774
    ##  7 ARBUTUS-RIDGE      AMERICAN HORNBEAM           14  0.00271 
    ##  8 ARBUTUS-RIDGE      AMERICAN MOUNTAIN ASH        8  0.00155 
    ##  9 ARBUTUS-RIDGE      AMERICAN SWEETGUM            2  0.000387
    ## 10 ARBUTUS-RIDGE      AMUR MAPLE                   5  0.000967
    ## # ℹ 6,131 more rows
…
**1.2.3.3 Graphing:** Task 8 was selected: *Create a graph that has at
least two geom layers.*

The graph most likely to help answer our question was deemed to be by
comparing the number of species of trees planted between neighbourhoods.
To do so, a new dataframe had to be created.

``` r
n_species_neighbourhood <- species_neighbourhood %>%
  group_by(neighbourhood_name) %>%
  summarise(num_species=n_distinct(common_name))
n_species_neighbourhood
```

    ## # A tibble: 22 × 2
    ##    neighbourhood_name       num_species
    ##    <chr>                          <int>
    ##  1 ARBUTUS-RIDGE                    260
    ##  2 DOWNTOWN                         168
    ##  3 DUNBAR-SOUTHLANDS                364
    ##  4 FAIRVIEW                         223
    ##  5 GRANDVIEW-WOODLAND               310
    ##  6 HASTINGS-SUNRISE                 347
    ##  7 KENSINGTON-CEDAR COTTAGE         323
    ##  8 KERRISDALE                       284
    ##  9 KILLARNEY                        237
    ## 10 KITSILANO                        336
    ## # ℹ 12 more rows
…
Thankfully, we can use and adapt the work done for the first research
question to this question. We can thus use the already extant
`vancouver_trees_noNA_date` to create a new dataframe with a new
variable that depicts the number of trees planted per year per species.

``` r
year_planted_n_species<-vancouver_trees_noNA_date %>%
  group_by(common_name, year_planted) %>%
  summarise(.groups="keep", n=n())
year_planted_n_species
```

    ## # A tibble: 3,115 × 3
    ## # Groups:   common_name, year_planted [3,115]
    ##    common_name              year_planted     n
    ##    <chr>                           <dbl> <int>
    ##  1 ACCOLADE CHERRY                  1998     1
    ##  2 ACCOLADE CHERRY                  1999     2
    ##  3 AKEBONO FLOWERING CHERRY         1989     6
    ##  4 AKEBONO FLOWERING CHERRY         1993    40
    ##  5 AKEBONO FLOWERING CHERRY         1995    37
    ##  6 AKEBONO FLOWERING CHERRY         1996   197
    ##  7 AKEBONO FLOWERING CHERRY         1997    26
    ##  8 AKEBONO FLOWERING CHERRY         1998   103
    ##  9 AKEBONO FLOWERING CHERRY         1999    82
    ## 10 AKEBONO FLOWERING CHERRY         2000    83
    ## # ℹ 3,105 more rows
…
``` r
year_species_stats <- year_planted_n_species %>%
  group_by(common_name) %>%
  summarise(
  min = min(n),
  max = max(n),
  range = max-min,
  mean = mean(n),
  median = median(n),
  stdev = sd(n))
print(year_species_stats)
```

    ## # A tibble: 468 × 7
    ##    common_name                 min   max range  mean median  stdev
    ##    <chr>                     <int> <int> <int> <dbl>  <dbl>  <dbl>
    ##  1 ACCOLADE CHERRY               1     2     1  1.5     1.5  0.707
    ##  2 AKEBONO FLOWERING CHERRY      6   197   191 73.6    65   50.2  
    ##  3 ALDERLEAFED MOUNTAIN ASH      1    59    58 27.5    26.5 25.2  
    ##  4 ALIA'S MAGNOLIA               3     3     0  3       3   NA    
    ##  5 ALLEGHENY SERVICEBERRY        2     4     2  3       3    1.41 
    ##  6 ALLGOLD EUROPEAN ASH          1    69    68 25.7     7   37.6  
    ##  7 ALMIRA NORWAY MAPLE           1     1     0  1       1    0    
    ##  8 AMANOGAWA JAPANESE CHERRY     1     3     2  1.67    1    1.15 
    ##  9 AMERICAN BEECH                4    17    13  9       6    7    
    ## 10 AMERICAN CHESTNUT             1     1     0  1       1   NA    
    ## # ℹ 458 more rows
…
As `vancouver_trees` is tidy, it can be made untidy using
`pivot_longer()` to make new variables. Here we create two new
variables, `name_type` and `name`. `name_type` will be either
`genus_name`, `species_name`, `cultivar_name`, or `common_name`. This
will untidy the data as there will be now 4 rows per tree.

``` r
untidy_trees <- vancouver_trees %>% 
   pivot_longer(cols = c("genus_name", "species_name", "cultivar_name", "common_name"),
                names_to = c("name_type"), 
                values_to = "name") 
select(untidy_trees, name_type, name, everything())
```

    ## # A tibble: 586,444 × 18
    ##    name_type     name      tree_id civic_number std_street assigned root_barrier
    ##    <chr>         <chr>       <dbl>        <dbl> <chr>      <chr>    <chr>       
    ##  1 genus_name    ULMUS      149556          494 W 58TH AV  N        N           
    ##  2 species_name  AMERICANA  149556          494 W 58TH AV  N        N           
    ##  3 cultivar_name BRANDON    149556          494 W 58TH AV  N        N           
    ##  4 common_name   BRANDON …  149556          494 W 58TH AV  N        N           
    ##  5 genus_name    ZELKOVA    149563          450 W 58TH AV  N        N           
    ##  6 species_name  SERRATA    149563          450 W 58TH AV  N        N           
    ##  7 cultivar_name <NA>       149563          450 W 58TH AV  N        N           
    ##  8 common_name   JAPANESE…  149563          450 W 58TH AV  N        N           
    ##  9 genus_name    STYRAX     149579         4994 WINDSOR ST N        N           
    ## 10 species_name  JAPONICA   149579         4994 WINDSOR ST N        N           
    ## # ℹ 586,434 more rows
    ## # ℹ 11 more variables: plant_area <chr>, on_street_block <dbl>,
    ## #   on_street <chr>, neighbourhood_name <chr>, street_side_name <chr>,
    ## #   height_range_id <dbl>, diameter <dbl>, curb <chr>, date_planted <date>,
    ## #   longitude <dbl>, latitude <dbl>

We can tidy the data back using `pivot_wider`.

``` r
untidy_trees%>%
  pivot_wider(names_from = name_type, values_from = name) %>% 
  select(genus_name, species_name, cultivar_name, common_name, everything())
```

    ## # A tibble: 146,611 × 20
    ##    genus_name species_name cultivar_name   common_name      tree_id civic_number
    ##    <chr>      <chr>        <chr>           <chr>              <dbl>        <dbl>
    ##  1 ULMUS      AMERICANA    BRANDON         BRANDON ELM       149556          494
    ##  2 ZELKOVA    SERRATA      <NA>            JAPANESE ZELKOVA  149563          450
    ##  3 STYRAX     JAPONICA     <NA>            JAPANESE SNOWBE…  149579         4994
    ##  4 FRAXINUS   AMERICANA    AUTUMN APPLAUSE AUTUMN APPLAUSE…  149590          858
    ##  5 ACER       CAMPESTRE    <NA>            HEDGE MAPLE       149604         5032
    ##  6 PYRUS      CALLERYANA   CHANTICLEER     CHANTICLEER PEAR  149616          585
    ##  7 ACER       PLATANOIDES  COLUMNARE       COLUMNAR NORWAY…  149617         4909
    ##  8 ACER       PLATANOIDES  COLUMNARE       COLUMNAR NORWAY…  149618         4925
    ##  9 ACER       PLATANOIDES  COLUMNARE       COLUMNAR NORWAY…  149619         4969
    ## 10 FRAXINUS   AMERICANA    AUTUMN APPLAUSE AUTUMN APPLAUSE…  149625          720
    ## # ℹ 146,601 more rows
    ## # ℹ 14 more variables: std_street <chr>, assigned <chr>, root_barrier <chr>,
    ## #   plant_area <chr>, on_street_block <dbl>, on_street <chr>,
    ## #   neighbourhood_name <chr>, street_side_name <chr>, height_range_id <dbl>,
    ## #   diameter <dbl>, curb <chr>, date_planted <date>, longitude <dbl>,
    ## #   latitude <dbl>
…
<!--------------------------- Start your work below --------------------------->

#### 2.3.1: Question 1: *Do localisations differ in the variety of types of trees planted there?*

As we are only concerned with `neighbourhood_name` (to represent
localisation) and `common_name` (to represent the types of trees) for
this question, we can first filter out unnecessary variables.

``` r
q1_data1<-vancouver_trees %>%
  select(neighbourhood_name, common_name)
q1_data1
```

    ## # A tibble: 146,611 × 2
    ##    neighbourhood_name       common_name          
    ##    <chr>                    <chr>                
    ##  1 MARPOLE                  BRANDON ELM          
    ##  2 MARPOLE                  JAPANESE ZELKOVA     
    ##  3 KENSINGTON-CEDAR COTTAGE JAPANESE SNOWBELL    
    ##  4 KENSINGTON-CEDAR COTTAGE AUTUMN APPLAUSE ASH  
    ##  5 KENSINGTON-CEDAR COTTAGE HEDGE MAPLE          
    ##  6 MARPOLE                  CHANTICLEER PEAR     
    ##  7 KENSINGTON-CEDAR COTTAGE COLUMNAR NORWAY MAPLE
    ##  8 KENSINGTON-CEDAR COTTAGE COLUMNAR NORWAY MAPLE
    ##  9 KENSINGTON-CEDAR COTTAGE COLUMNAR NORWAY MAPLE
    ## 10 KENSINGTON-CEDAR COTTAGE AUTUMN APPLAUSE ASH  
    ## # ℹ 146,601 more rows

We want to create a new variable that contains the number of species of
trees planted per neighbourhoods.

``` r
q1_data <- q1_data1 %>%
  group_by(neighbourhood_name) %>%
  summarise(num_species=n_distinct(common_name))
q1_data
```

    ## # A tibble: 22 × 2
    ##    neighbourhood_name       num_species
    ##    <chr>                          <int>
    ##  1 ARBUTUS-RIDGE                    260
    ##  2 DOWNTOWN                         168
    ##  3 DUNBAR-SOUTHLANDS                364
    ##  4 FAIRVIEW                         223
    ##  5 GRANDVIEW-WOODLAND               310
    ##  6 HASTINGS-SUNRISE                 347
    ##  7 KENSINGTON-CEDAR COTTAGE         323
    ##  8 KERRISDALE                       284
    ##  9 KILLARNEY                        237
    ## 10 KITSILANO                        336
    ## # ℹ 12 more rows

#### 2.3.2: Question 2: *Has the planting technique (presence of a root barrier and tree grate) evolved?*

As we are only concerned with `plant_area` (for the potential presence
of a tree grate), `root_barrier` (for the potential presence of a root
barrier), and `date_planted`, we can first filter out unnecessary
variables.

``` r
q2_data1<-vancouver_trees %>%
  select(date_planted, root_barrier, plant_area)
q2_data1
```

    ## # A tibble: 146,611 × 3
    ##    date_planted root_barrier plant_area
    ##    <date>       <chr>        <chr>     
    ##  1 1999-01-13   N            N         
    ##  2 1996-05-31   N            N         
    ##  3 1993-11-22   N            4         
    ##  4 1996-04-29   N            4         
    ##  5 1993-12-17   N            4         
    ##  6 NA           N            B         
    ##  7 1993-12-16   N            6         
    ##  8 1993-12-16   N            6         
    ##  9 1993-12-16   N            3         
    ## 10 1993-12-03   N            3         
    ## # ℹ 146,601 more rows
…
    ##   na_count     Variable
    ## 1    76548 date_planted
    ## 2        0 root_barrier
    ## 3     1486   plant_area

Now that the variables containing NA values have been identified, we can
drop the NA values.

``` r
q2_data3 <- q2_data1 %>% drop_na(date_planted) %>%
drop_na(plant_area)
q2_data3
```

    ## # A tibble: 69,171 × 3
    ##    date_planted root_barrier plant_area
    ##    <date>       <chr>        <chr>     
    ##  1 1999-01-13   N            N         
    ##  2 1996-05-31   N            N         
    ##  3 1993-11-22   N            4         
    ##  4 1996-04-29   N            4         
    ##  5 1993-12-17   N            4         
    ##  6 1993-12-16   N            6         
    ##  7 1993-12-16   N            6         
    ##  8 1993-12-16   N            3         
    ##  9 1993-12-03   N            3         
    ## 10 1993-12-03   N            5         
    ## # ℹ 69,161 more rows
…
    ## [1] 0

Now we want to make a new variable that contains only the year of
plantation, and no longer the month and day.

``` r
q2_data3$year_planted<-as.numeric(format(q2_data3$date_planted, "%Y"))
q2_data4 <- q2_data3 %>% select(year_planted, root_barrier, plant_area)
q2_data4
```

    ## # A tibble: 69,171 × 3
    ##    year_planted root_barrier plant_area
    ##           <dbl> <chr>        <chr>     
    ##  1         1999 N            N         
    ##  2         1996 N            N         
    ##  3         1993 N            4         
    ##  4         1996 N            4         
    ##  5         1993 N            4         
    ##  6         1993 N            6         
    ##  7         1993 N            6         
    ##  8         1993 N            3         
    ##  9         1993 N            3         
    ## 10         1993 N            5         
    ## # ℹ 69,161 more rows

Now let’s trade our \``plant_area` variable for a variable that will
only point out whether there is a tree grate or not.

``` r
q2_data <- q2_data4 %>%
  mutate(tree_grate= case_when(
    plant_area %in% c("g", "G") ~ "Y", 
    TRUE ~ "N"
  ))
q2_data <- q2_data%>% select(year_planted, root_barrier, tree_grate)
q2_data
```

    ## # A tibble: 69,171 × 3
    ##    year_planted root_barrier tree_grate
    ##           <dbl> <chr>        <chr>     
    ##  1         1999 N            N         
    ##  2         1996 N            N         
    ##  3         1993 N            N         
    ##  4         1996 N            N         
    ##  5         1993 N            N         
    ##  6         1993 N            N         
    ##  7         1993 N            N         
    ##  8         1993 N            N         
    ##  9         1993 N            N         
    ## 10         1993 N            N         
    ## # ℹ 69,161 more rows
…
